{
  "title": "Recent Uploads tagged test123",
  "link": "https:\/\/www.flickr.com\/photos\/tags\/test123\/",
  "description": "",
  "modified": "2012-10-15T18:03:09Z",
  "generator": "https:\/\/www.flickr.com",
  "items": [
    {
      "title": "saloum24",
      "link": "https:\/\/www.flickr.com\/photos\/manwell05\/8091006141\/",
      "media": {"m":"https:\/\/farm9.staticflickr.com\/8183\/8091006141_65661c2fa4_m.jpg"},
      "date_taken": "2012-09-26T10:57:46-08:00",
      "description": " <p><a href=\"https:\/\/www.flickr.com\/people\/manwell05\/\">manwell05<\/a> posted a photo:<\/p> <p><a href=\"https:\/\/www.flickr.com\/photos\/manwell05\/8091006141\/\" title=\"saloum24\"><img src=\"https:\/\/farm9.staticflickr.com\/8183\/8091006141_65661c2fa4_m.jpg\" width=\"240\" height=\"160\" alt=\"saloum24\" \/><\/a><\/p> ",
      "published": "2012-10-15T18:03:09Z",
      "author": "nobody@flickr.com (\"manwell05\")",
      "author_id": "9645475@N07",
      "tags": "senegal test123 palmarin sinesaloum saloum ndangane djilor"
    },
    {
      "title": "What is Lorem Ipsum?",
      "link": "https:\/\/www.flickr.com\/photos\/153476796@N07\/33466845494\/",
      "media": {"m":"https:\/\/farm3.staticflickr.com\/2882\/33466845494_d1bca33a5a_m.jpg"},
      "date_taken": "2017-04-27T13:59:53-08:00",
      "description": " <p><a href=\"https:\/\/www.flickr.com\/people\/153476796@N07\/\">sonam chauhan<\/a> posted a photo:<\/p> <p><a href=\"https:\/\/www.flickr.com\/photos\/153476796@N07\/33466845494\/\" title=\"What is Lorem Ipsum?\"><img src=\"https:\/\/farm3.staticflickr.com\/2882\/33466845494_d1bca33a5a_m.jpg\" width=\"240\" height=\"192\" alt=\"What is Lorem Ipsum?\" \/><\/a><\/p> <p>test<br \/> Lorem Ipsum is simply dummy text of the printing and typesetting industry. Lorem Ipsum has been the industry&#8217;s standard dummy text ever since the 1500s, when an unknown printer took a galley of type and scrambled it to make a type specimen book. It has survived not only five... <br \/> <br \/> <a href=\"http:\/\/testing.inkgraph.in\/2017\/04\/27\/what-is-lorem-ipsum\/\" rel=\"nofollow\">testing.inkgraph.in\/2017\/04\/27\/what-is-lorem-ipsum\/<\/a><\/p>",
      "published": "2017-04-27T20:59:53Z",
      "author": "nobody@flickr.com (\"sonam chauhan\")",
      "author_id": "153476796@N07",
      "tags": "test123"
    },
    {
      "title": "_DSC7646",
      "link": "https:\/\/www.flickr.com\/photos\/rotounit\/23987976894\/",
      "media": {"m":"https:\/\/farm2.staticflickr.com\/1713\/23987976894_0f805193bf_m.jpg"},
      "date_taken": "2016-01-25T18:12:16-08:00",
      "description": " <p><a href=\"https:\/\/www.flickr.com\/people\/rotounit\/\">droto21<\/a> posted a photo:<\/p> <p><a href=\"https:\/\/www.flickr.com\/photos\/rotounit\/23987976894\/\" title=\"_DSC7646\"><img src=\"https:\/\/farm2.staticflickr.com\/1713\/23987976894_0f805193bf_m.jpg\" width=\"140\" height=\"240\" alt=\"_DSC7646\" \/><\/a><\/p> ",
      "published": "2016-01-26T02:12:16Z",
      "author": "nobody@flickr.com (\"droto21\")",
      "author_id": "70018044@N04",
      "tags": "test123"
    },
    {
      "title": "_DSC7658",
      "link": "https:\/\/www.flickr.com\/photos\/rotounit\/24320522210\/",
      "media": {"m":"https:\/\/farm2.staticflickr.com\/1703\/24320522210_af902753ae_m.jpg"},
      "date_taken": "2016-01-25T18:08:00-08:00",
      "description": " <p><a href=\"https:\/\/www.flickr.com\/people\/rotounit\/\">droto21<\/a> posted a photo:<\/p> <p><a href=\"https:\/\/www.flickr.com\/photos\/rotounit\/24320522210\/\" title=\"_DSC7658\"><img src=\"https:\/\/farm2.staticflickr.com\/1703\/24320522210_af902753ae_m.jpg\" width=\"240\" height=\"135\" alt=\"_DSC7658\" \/><\/a><\/p> ",
      "published": "2016-01-26T02:08:00Z",
      "author": "nobody@flickr.com (\"droto21\")",
      "author_id": "70018044@N04",
      "tags": "test123"
    },
    {
      "title": "Life's a beach. #summerlove #test123 #firstupload #boracay #flashback",
      "link": "https:\/\/www.flickr.com\/photos\/131988156@N03\/16951152512\/",
      "media": {"m":"https:\/\/farm8.staticflickr.com\/7602\/16951152512_0f3b232e7c_m.jpg"},
      "date_taken": "2014-12-04T13:49:51-08:00",
      "description": " <p><a href=\"https:\/\/www.flickr.com\/people\/131988156@N03\/\">katrinaannfunte<\/a> posted a photo:<\/p> <p><a href=\"https:\/\/www.flickr.com\/photos\/131988156@N03\/16951152512\/\" title=\"Life's a beach. #summerlove #test123 #firstupload #boracay #flashback\"><img src=\"https:\/\/farm8.staticflickr.com\/7602\/16951152512_0f3b232e7c_m.jpg\" width=\"160\" height=\"240\" alt=\"Life's a beach. #summerlove #test123 #firstupload #boracay #flashback\" \/><\/a><\/p> ",
      "published": "2015-03-28T07:11:19Z",
      "author": "nobody@flickr.com (\"katrinaannfunte\")",
      "author_id": "131988156@N03",
      "tags": "flashback firstupload boracay summerlove test123"
    },
    {
      "title": "BlueFootedBoobywithchicksCrop",
      "link": "https:\/\/www.flickr.com\/photos\/bkedgar\/15319846530\/",
      "media": {"m":"https:\/\/farm4.staticflickr.com\/3930\/15319846530_46576992ee_m.jpg"},
      "date_taken": "2008-08-10T17:59:10-08:00",
      "description": " <p><a href=\"https:\/\/www.flickr.com\/people\/bkedgar\/\">B K Edgar<\/a> posted a photo:<\/p> <p><a href=\"https:\/\/www.flickr.com\/photos\/bkedgar\/15319846530\/\" title=\"BlueFootedBoobywithchicksCrop\"><img src=\"https:\/\/farm4.staticflickr.com\/3930\/15319846530_46576992ee_m.jpg\" width=\"180\" height=\"240\" alt=\"BlueFootedBoobywithchicksCrop\" \/><\/a><\/p> <p>Blue Footed Booby with Chicks<br \/> 2008 Galapagos Islands<br \/> 10 August 2008<br \/> <br \/> JREF<br \/> Amazing Adventure III<br \/> 09 August 2008 - 17 August 2008<\/p>",
      "published": "2014-10-11T17:50:10Z",
      "author": "nobody@flickr.com (\"B K Edgar\")",
      "author_id": "64631592@N03",
      "tags": "jref amazingadventureiii galapagos bkeslide001 test123"
    },
    {
      "title": "IMG_8375",
      "link": "https:\/\/www.flickr.com\/photos\/126945989@N02\/14919067926\/",
      "media": {"m":"https:\/\/farm6.staticflickr.com\/5574\/14919067926_ef6c9c5145_m.jpg"},
      "date_taken": "2014-08-10T02:44:55-08:00",
      "description": " <p><a href=\"https:\/\/www.flickr.com\/people\/126945989@N02\/\">bnbrennan<\/a> posted a photo:<\/p> <p><a href=\"https:\/\/www.flickr.com\/photos\/126945989@N02\/14919067926\/\" title=\"IMG_8375\"><img src=\"https:\/\/farm6.staticflickr.com\/5574\/14919067926_ef6c9c5145_m.jpg\" width=\"160\" height=\"240\" alt=\"IMG_8375\" \/><\/a><\/p> ",
      "published": "2014-08-17T03:21:27Z",
      "author": "nobody@flickr.com (\"bnbrennan\")",
      "author_id": "126945989@N02",
      "tags": "test123"
    },
    {
      "title": "test123",
      "link": "https:\/\/www.flickr.com\/photos\/alkshaf\/14481374280\/",
      "media": {"m":"https:\/\/farm6.staticflickr.com\/5586\/14481374280_859fe35e1a_m.jpg"},
      "date_taken": "2014-07-16T11:52:35-08:00",
      "description": " <p><a href=\"https:\/\/www.flickr.com\/people\/alkshaf\/\">onmednet.com<\/a> posted a photo:<\/p> <p><a href=\"https:\/\/www.flickr.com\/photos\/alkshaf\/14481374280\/\" title=\"test123\"><img src=\"https:\/\/farm6.staticflickr.com\/5586\/14481374280_859fe35e1a_m.jpg\" width=\"120\" height=\"100\" alt=\"test123\" \/><\/a><\/p> <p><br \/> play free games online Play Online Games - Free Online Games<br \/> <br \/> test123 vtest1test12323 test123<br \/> <br \/> \u0627\u0644\u062a\u062f\u0648\u064a\u0646\u0629 test123 \u0638\u0647\u0631\u062a \u0623\u0648\u0644\u0627\u064b \u0639\u0644\u0649 Play Online Games.<\/p>",
      "published": "2014-07-16T09:52:35Z",
      "author": "nobody@flickr.com (\"onmednet.com\")",
      "author_id": "94121215@N05",
      "tags": "test123"
    },
    {
      "title": "DSC07562",
      "link": "https:\/\/www.flickr.com\/photos\/bkedgar\/9074053675\/",
      "media": {"m":"https:\/\/farm3.staticflickr.com\/2839\/9074053675_d9a1660a0a_m.jpg"},
      "date_taken": "2012-06-23T06:14:23-08:00",
      "description": " <p><a href=\"https:\/\/www.flickr.com\/people\/bkedgar\/\">B K Edgar<\/a> posted a photo:<\/p> <p><a href=\"https:\/\/www.flickr.com\/photos\/bkedgar\/9074053675\/\" title=\"DSC07562\"><img src=\"https:\/\/farm3.staticflickr.com\/2839\/9074053675_d9a1660a0a_m.jpg\" width=\"240\" height=\"92\" alt=\"DSC07562\" \/><\/a><\/p> <p>SONY DSC<\/p>",
      "published": "2013-06-18T11:51:14Z",
      "author": "nobody@flickr.com (\"B K Edgar\")",
      "author_id": "64631592@N03",
      "tags": "puffins test123 bkeslide001"
    },
    {
      "title": "DSC07563",
      "link": "https:\/\/www.flickr.com\/photos\/bkedgar\/9076284194\/",
      "media": {"m":"https:\/\/farm6.staticflickr.com\/5325\/9076284194_178227cab9_m.jpg"},
      "date_taken": "2012-06-23T06:14:24-08:00",
      "description": " <p><a href=\"https:\/\/www.flickr.com\/people\/bkedgar\/\">B K Edgar<\/a> posted a photo:<\/p> <p><a href=\"https:\/\/www.flickr.com\/photos\/bkedgar\/9076284194\/\" title=\"DSC07563\"><img src=\"https:\/\/farm6.staticflickr.com\/5325\/9076284194_178227cab9_m.jpg\" width=\"240\" height=\"205\" alt=\"DSC07563\" \/><\/a><\/p> <p>SONY DSC<\/p>",
      "published": "2013-06-18T11:51:14Z",
      "author": "nobody@flickr.com (\"B K Edgar\")",
      "author_id": "64631592@N03",
      "tags": "puffins test123"
    },
    {
      "title": "DSC05679",
      "link": "https:\/\/www.flickr.com\/photos\/bkedgar\/9069744643\/",
      "media": {"m":"https:\/\/farm4.staticflickr.com\/3785\/9069744643_e8965d2dcf_m.jpg"},
      "date_taken": "2012-06-19T07:32:21-08:00",
      "description": " <p><a href=\"https:\/\/www.flickr.com\/people\/bkedgar\/\">B K Edgar<\/a> posted a photo:<\/p> <p><a href=\"https:\/\/www.flickr.com\/photos\/bkedgar\/9069744643\/\" title=\"DSC05679\"><img src=\"https:\/\/farm4.staticflickr.com\/3785\/9069744643_e8965d2dcf_m.jpg\" width=\"240\" height=\"97\" alt=\"DSC05679\" \/><\/a><\/p> <p>SONY DSC<\/p>",
      "published": "2013-06-17T22:41:12Z",
      "author": "nobody@flickr.com (\"B K Edgar\")",
      "author_id": "64631592@N03",
      "tags": "test123 bkeslide001"
    },
    {
      "title": "IMG_2590",
      "link": "https:\/\/www.flickr.com\/photos\/emostar\/8129535433\/",
      "media": {"m":"https:\/\/farm9.staticflickr.com\/8474\/8129535433_f09cc4ce73_m.jpg"},
      "date_taken": "2012-10-17T11:12:50-08:00",
      "description": " <p><a href=\"https:\/\/www.flickr.com\/people\/emostar\/\">The Jon<\/a> posted a photo:<\/p> <p><a href=\"https:\/\/www.flickr.com\/photos\/emostar\/8129535433\/\" title=\"IMG_2590\"><img src=\"https:\/\/farm9.staticflickr.com\/8474\/8129535433_f09cc4ce73_m.jpg\" width=\"240\" height=\"160\" alt=\"IMG_2590\" \/><\/a><\/p> ",
      "published": "2012-10-28T02:20:54Z",
      "author": "nobody@flickr.com (\"The Jon\")",
      "author_id": "60392097@N00",
      "tags": "test123"
    },
    {
      "title": "saloum1",
      "link": "https:\/\/www.flickr.com\/photos\/manwell05\/8091001531\/",
      "media": {"m":"https:\/\/farm9.staticflickr.com\/8328\/8091001531_899bea71b3_m.jpg"},
      "date_taken": "2012-09-28T13:15:14-08:00",
      "description": " <p><a href=\"https:\/\/www.flickr.com\/people\/manwell05\/\">manwell05<\/a> posted a photo:<\/p> <p><a href=\"https:\/\/www.flickr.com\/photos\/manwell05\/8091001531\/\" title=\"saloum1\"><img src=\"https:\/\/farm9.staticflickr.com\/8328\/8091001531_899bea71b3_m.jpg\" width=\"135\" height=\"240\" alt=\"saloum1\" \/><\/a><\/p> ",
      "published": "2012-10-15T18:03:27Z",
      "author": "nobody@flickr.com (\"manwell05\")",
      "author_id": "9645475@N07",
      "tags": "senegal test123 palmarin sinesaloum saloum ndangane djilor"
    },
    {
      "title": "saloum36",
      "link": "https:\/\/www.flickr.com\/photos\/manwell05\/8091008573\/",
      "media": {"m":"https:\/\/farm9.staticflickr.com\/8056\/8091008573_b841f18bfe_m.jpg"},
      "date_taken": "2012-09-25T13:21:53-08:00",
      "description": " <p><a href=\"https:\/\/www.flickr.com\/people\/manwell05\/\">manwell05<\/a> posted a photo:<\/p> <p><a href=\"https:\/\/www.flickr.com\/photos\/manwell05\/8091008573\/\" title=\"saloum36\"><img src=\"https:\/\/farm9.staticflickr.com\/8056\/8091008573_b841f18bfe_m.jpg\" width=\"240\" height=\"160\" alt=\"saloum36\" \/><\/a><\/p> ",
      "published": "2012-10-15T18:02:59Z",
      "author": "nobody@flickr.com (\"manwell05\")",
      "author_id": "9645475@N07",
      "tags": "senegal test123 palmarin sinesaloum saloum ndangane djilor"
    },
    {
      "title": "saloum12",
      "link": "https:\/\/www.flickr.com\/photos\/manwell05\/8091003999\/",
      "media": {"m":"https:\/\/farm9.staticflickr.com\/8046\/8091003999_8ed38e80f2_m.jpg"},
      "date_taken": "2012-09-27T07:47:59-08:00",
      "description": " <p><a href=\"https:\/\/www.flickr.com\/people\/manwell05\/\">manwell05<\/a> posted a photo:<\/p> <p><a href=\"https:\/\/www.flickr.com\/photos\/manwell05\/8091003999\/\" title=\"saloum12\"><img src=\"https:\/\/farm9.staticflickr.com\/8046\/8091003999_8ed38e80f2_m.jpg\" width=\"240\" height=\"135\" alt=\"saloum12\" \/><\/a><\/p> ",
      "published": "2012-10-15T18:03:18Z",
      "author": "nobody@flickr.com (\"manwell05\")",
      "author_id": "9645475@N07",
      "tags": "senegal test123 palmarin sinesaloum saloum ndangane djilor"
    },
    {
      "title": "saloum7",
      "link": "https:\/\/www.flickr.com\/photos\/manwell05\/8091008616\/",
      "media": {"m":"https:\/\/farm9.staticflickr.com\/8195\/8091008616_e7834709ac_m.jpg"},
      "date_taken": "2012-09-27T10:11:53-08:00",
      "description": " <p><a href=\"https:\/\/www.flickr.com\/people\/manwell05\/\">manwell05<\/a> posted a photo:<\/p> <p><a href=\"https:\/\/www.flickr.com\/photos\/manwell05\/8091008616\/\" title=\"saloum7\"><img src=\"https:\/\/farm9.staticflickr.com\/8195\/8091008616_e7834709ac_m.jpg\" width=\"160\" height=\"240\" alt=\"saloum7\" \/><\/a><\/p> ",
      "published": "2012-10-15T18:03:22Z",
      "author": "nobody@flickr.com (\"manwell05\")",
      "author_id": "9645475@N07",
      "tags": "senegal test123 palmarin sinesaloum saloum ndangane djilor"
    },
    {
      "title": "saloum8",
      "link": "https:\/\/www.flickr.com\/photos\/manwell05\/8091009046\/",
      "media": {"m":"https:\/\/farm9.staticflickr.com\/8051\/8091009046_f9db4dbfba_m.jpg"},
      "date_taken": "2012-09-27T09:35:47-08:00",
      "description": " <p><a href=\"https:\/\/www.flickr.com\/people\/manwell05\/\">manwell05<\/a> posted a photo:<\/p> <p><a href=\"https:\/\/www.flickr.com\/photos\/manwell05\/8091009046\/\" title=\"saloum8\"><img src=\"https:\/\/farm9.staticflickr.com\/8051\/8091009046_f9db4dbfba_m.jpg\" width=\"240\" height=\"160\" alt=\"saloum8\" \/><\/a><\/p> ",
      "published": "2012-10-15T18:03:21Z",
      "author": "nobody@flickr.com (\"manwell05\")",
      "author_id": "9645475@N07",
      "tags": "senegal test123 palmarin sinesaloum saloum ndangane djilor"
    },
    {
      "title": "saloum10",
      "link": "https:\/\/www.flickr.com\/photos\/manwell05\/8091003425\/",
      "media": {"m":"https:\/\/farm9.staticflickr.com\/8051\/8091003425_8179893bd6_m.jpg"},
      "date_taken": "2012-09-27T09:31:42-08:00",
      "description": " <p><a href=\"https:\/\/www.flickr.com\/people\/manwell05\/\">manwell05<\/a> posted a photo:<\/p> <p><a href=\"https:\/\/www.flickr.com\/photos\/manwell05\/8091003425\/\" title=\"saloum10\"><img src=\"https:\/\/farm9.staticflickr.com\/8051\/8091003425_8179893bd6_m.jpg\" width=\"160\" height=\"240\" alt=\"saloum10\" \/><\/a><\/p> ",
      "published": "2012-10-15T18:03:20Z",
      "author": "nobody@flickr.com (\"manwell05\")",
      "author_id": "9645475@N07",
      "tags": "senegal test123 palmarin sinesaloum saloum ndangane djilor"
    },
    {
      "title": "saloum11",
      "link": "https:\/\/www.flickr.com\/photos\/manwell05\/8091003799\/",
      "media": {"m":"https:\/\/farm9.staticflickr.com\/8323\/8091003799_71b2bdc5e7_m.jpg"},
      "date_taken": "2012-09-27T09:13:54-08:00",
      "description": " <p><a href=\"https:\/\/www.flickr.com\/people\/manwell05\/\">manwell05<\/a> posted a photo:<\/p> <p><a href=\"https:\/\/www.flickr.com\/photos\/manwell05\/8091003799\/\" title=\"saloum11\"><img src=\"https:\/\/farm9.staticflickr.com\/8323\/8091003799_71b2bdc5e7_m.jpg\" width=\"240\" height=\"238\" alt=\"saloum11\" \/><\/a><\/p> ",
      "published": "2012-10-15T18:03:19Z",
      "author": "nobody@flickr.com (\"manwell05\")",
      "author_id": "9645475@N07",
      "tags": "senegal test123 palmarin sinesaloum saloum ndangane djilor"
    },
    {
      "title": "saloum34",
      "link": "https:\/\/www.flickr.com\/photos\/manwell05\/8091008275\/",
      "media": {"m":"https:\/\/farm9.staticflickr.com\/8465\/8091008275_f9c1589677_m.jpg"},
      "date_taken": "2012-09-25T14:12:20-08:00",
      "description": " <p><a href=\"https:\/\/www.flickr.com\/people\/manwell05\/\">manwell05<\/a> posted a photo:<\/p> <p><a href=\"https:\/\/www.flickr.com\/photos\/manwell05\/8091008275\/\" title=\"saloum34\"><img src=\"https:\/\/farm9.staticflickr.com\/8465\/8091008275_f9c1589677_m.jpg\" width=\"240\" height=\"108\" alt=\"saloum34\" \/><\/a><\/p> ",
      "published": "2012-10-15T18:03:00Z",
      "author": "nobody@flickr.com (\"manwell05\")",
      "author_id": "9645475@N07",
      "tags": "senegal test123 palmarin sinesaloum saloum ndangane djilor"
    }
  ]
}